[2013-02-18T13:00:00+00:00] Importacao de dados Clipping BVS-SP
[2013-02-19T13:00:00+00:00] Acompanhamento do projeto Indice Regiona
[2013-02-19T19:00:00+00:00] Follow-up User's Feedback
[2013-02-19T14:00:00+00:00] Follow-up Submission
[2013-02-20T14:00:00+00:00] Dispositivos moveis - GT - BVS-MS
[2013-02-21T18:30:00+00:00] Vulnerabilidade - Instancia BVS
[2013-02-25T13:00:00+00:00] Importacao de dados Clipping BVS-SP
[2013-02-26T13:00:00+00:00] Follow-up Submission
[2013-02-26T14:00:00+00:00] Follow-up User's Feedback
[2013-02-27T14:00:00+00:00] Dispositivos moveis - GT - BVS-MS
[2013-02-28T13:00:00+00:00] Comemoracao aniversariantes de fevereiro
[2013-02-28T17:00:00+00:00] Reuniao Clipping 
[2013-03-01T17:00:00+00:00] Aapresentacao do software d.net
[2013-03-06T14:00:00+00:00] Acompanhamento do projeto Indice Regiona
